<svg xmlns="http://www.w3.org/2000/svg" width="20" height="18" viewBox="0 0 20 18">
  <defs>
    <style>
      .cls-1 {
        fill-rule: evenodd;
      }
    </style>
  </defs>
  <path id="_10" data-name="10" class="cls-1" d="M78,390v2h2v-2H78Zm0.058,8a1,1,0,0,1,0-2h7.652a1,1,0,0,1,0,2H78.057Zm6.224-4a1,1,0,0,1,0-2H85.9a1,1,0,0,1,0,2H84.281Zm0-4a1,1,0,0,1,0-2H85.9a1,1,0,0,1,0,2H84.281Zm1.444,11a2.259,2.259,0,0,0,1.609-.673,2.306,2.306,0,0,0,.666-1.6V387H75v10.552a1,1,0,1,1-2,0V386.359a1.03,1.03,0,0,0,0-.32A1.056,1.056,0,0,1,74.071,385H88.937A1.063,1.063,0,0,1,90,386.063v12.586a4.272,4.272,0,0,1-1.315,3.076A4.549,4.549,0,0,1,85.511,403H74.188a4.055,4.055,0,0,1-2.962-1.305A4.582,4.582,0,0,1,70,398.547V389.39a1,1,0,1,1,2,0V398.7a2.306,2.306,0,0,0,.666,1.626,2.259,2.259,0,0,0,1.608.673H85.725ZM76,392.937v-3.874A1.063,1.063,0,0,1,77.063,388h3.874A1.063,1.063,0,0,1,82,389.063v3.874A1.063,1.063,0,0,1,80.937,394H77.063A1.063,1.063,0,0,1,76,392.937Z" transform="translate(-70 -385)"/>
</svg>
