<svg xmlns="http://www.w3.org/2000/svg" width="16" height="14" viewBox="0 0 16 14">
  <defs>
    <style>
      .cls-1 {
        fill-rule: evenodd;
      }
    </style>
  </defs>
  <path id="_7" data-name="7" class="cls-1" d="M85.8,280.818a1.276,1.276,0,0,1,0,2.546H75.916a1.276,1.276,0,0,1,0-2.546H85.8Zm-13.454,7.637a1.275,1.275,0,0,1,0,2.545H72.191a1.275,1.275,0,0,1,0-2.545h0.152Zm0-11.455a1.275,1.275,0,0,1,0,2.545H72.191a1.275,1.275,0,0,1,0-2.545h0.152Zm0,7.636a1.276,1.276,0,0,1,0,2.546H72.191a1.276,1.276,0,0,1,0-2.546h0.152Zm0-3.818a1.276,1.276,0,0,1,0,2.546H72.191a1.276,1.276,0,0,1,0-2.546h0.152ZM85.8,277a1.275,1.275,0,0,1,0,2.545H75.916a1.275,1.275,0,0,1,0-2.545H85.8Zm-5.1,11.455a1.275,1.275,0,0,1,0,2.545h-4.94a1.275,1.275,0,0,1,0-2.545H80.7Zm5.1-3.819a1.276,1.276,0,0,1,0,2.546H75.916a1.276,1.276,0,0,1,0-2.546H85.8Z" transform="translate(-71 -277)"/>
</svg>
