<svg xmlns="http://www.w3.org/2000/svg" width="8" height="19" viewBox="0 0 8 19">
  <defs>
    <style>
      .cls-1 {
        fill: #fff;
        fill-rule: evenodd;
      }
    </style>
  </defs>
  <path id="подложка" class="cls-1" d="M113.744,260.251c-0.519.582-1.2,1.411-1.743-.178V242.557a1.047,1.047,0,0,1,1.743-.178l5.294,5.95a2.9,2.9,0,0,1,.253.332l0.005,0.006a5.025,5.025,0,0,1,.689,2.649h0a4.983,4.983,0,0,1-.695,2.647,2.831,2.831,0,0,1-.262.344Z" transform="translate(-112 -242)"/>
</svg>
